…
      median(by_date$sum,na.rm=TRUE)

    ## [1] 10765

## Average daily activity pattern

Mean and median number of steps taken each day is table below.

    by_interval<-step_data %>%
      group_by(interval)%>%
      summarise(
      mean=mean(steps,na.rm=TRUE))
    by_interval

    ## # A tibble: 288 x 2
    ##    interval   mean
    ##       <int>  <dbl>
    ##  1        0 1.72  
    ##  2        5 0.340 
    ##  3       10 0.132 
    ##  4       15 0.151 
    ##  5       20 0.0755
    ##  6       25 2.09  
    ##  7       30 0.528 
    ##  8       35 0.868 
    ##  9       40 0     
    ## 10       45 1.47  
    ## # ... with 278 more rows
…
